{
    "type": "panel",
    "name": "Plugin Template Name",
    "id": "grafana-plugin-panel",
    "info": {
        "description": "Plugin Template Name Description",
        "author": {
            "name": "Author Name",
            "url": "example.com"
        },
        "keywords": [],
        "logos": {},
        "links": [],
        "screenshots": [],
        "version": "0.0.1",
        "updated": "2017-04-05"
    },
    "dependencies": {
        "grafanaVersion": "5.x.x",
        "plugins": []
    }
}